%YAML 1.1
%TAG !u! tag:unity3d.com,2011:
--- !u!1045 &1
EditorBuildSettings:
  m_ObjectHideFlags: 0
  serializedVersion: 2
  m_Scenes:
  - enabled: 0
    path: 
    guid: 00000000000000000000000000000000
  - enabled: 1
    path: Assets/Scenes/Menu.unity
    guid: 78ecbb1015b1e4761bf0cfb56781de6c
  - enabled: 1
    path: Assets/Scenes/Credits.unity
    guid: feb2dfbfa37a0467ca9af5ea2ec00029
  - enabled: 1
    path: Assets/Scenes/Intro.unity
    guid: 04b199de2a23e45bba197e2e3bd5297a
  - enabled: 1
    path: Assets/Scenes/Levels/Lobby.unity
    guid: ac7bbe3eaf0b5dc43aa2245471642fa8
  - enabled: 1
    path: Assets/Scenes/Levels/intro/IntroBeerpong.unity
    guid: 01a4a97ebd09b7349bffb0b3b6f22453
  - enabled: 1
    path: Assets/Scenes/Levels/Playing.unity
    guid: de1f9d882386b41398bc7dda078d9d4b
  - enabled: 1
    path: Assets/Scenes/Levels/GoodEnd/GoodEndBeerPong.unity
    guid: 463069bca224915449125d459b5de6ab
  - enabled: 1
    path: Assets/Scenes/Levels/intro/IntroWaiting.unity
    guid: 3ae3159617c0c4046914f2e4e728ee85
  - enabled: 1
    path: Assets/Scenes/Levels/Waiting.unity
    guid: bcfd6fb5f604245e88c844a0ba0d5ac4
  - enabled: 1
    path: Assets/Scenes/Levels/GoodEnd/GoodEndWaiting.unity
    guid: a6ba51d6132cbfb4295c3648ef6eb7cf
  - enabled: 1
    path: Assets/Scenes/Levels/BadEndWaiting.unity
    guid: c5ddc970190257b438efa422218ed30f
  - enabled: 1
    path: Assets/Scenes/Levels/intro/IntroWriting.unity
    guid: 8fe5a3d09d4d4d649aa1cfcce3a8e07c
  - enabled: 1
    path: Assets/Scenes/Levels/Writing.unity
    guid: f4c63073067d644d0a918b6c2287c0c9
  - enabled: 1
    path: Assets/Scenes/Levels/GoodEnd/GoodEndWriting.unity
    guid: 4a953725de01f7142ac6e8e0d4acc672
  - enabled: 1
    path: Assets/Scenes/Levels/BadEndWriting.unity
    guid: 94f68208ef17e5145a2fc7ca10c9f82b
  - enabled: 1
    path: Assets/Scenes/Outro.unity
    guid: f5036cda129b244efb98d7fa441189c9
  m_configObjects: {}
